{
    "_extensions": [
        "jinja2_time.TimeExtension"
    ],
    "_template": "mcad",
    "author_email": "pm@nellump.net",
    "author_name": "Paul Mullen",
    "copyright_contact": "pm@nellump.net",
    "copyright_owner": "Paul Mullen",
    "copyright_years": "2023",
    "initial_version": "0.1.0",
    "license_spdx_id": "MIT",
    "project_description": "Simple, 3-D-printable cable organizers designed to attach to the tubular uprights of Anthro-brand carts and desks.",
    "project_name": "Anthro Cart Cable Organizers",
    "project_slug": "anthro_cart_cable_organizers",
    "project_snail": "Anthro_Cart_Cable_Organizers",
    "project_tech": "SolveSpace",
    "project_uri": "https://gitlab.com/p3m2k/anthro-cart-cable-organizers"
}
